…
  cv_results = cv_splits %>%
               mutate(
                      backward = map(train, ~lm(bwt ~ blength+bhead+gaweeks+wtgain+fincome+mheight+parity+babysex+mrace, data = .x)),
                      model1 = map(train, ~lm(bwt ~ blength + gaweeks, data = .x)),
                      model2 = map(train, ~lm(bwt ~ bhead * blength * babysex, data = .x)),
                      backward_rmse = map2_dbl(backward, test, rmse),
                      model1_rmse = map2_dbl(model1, test, rmse),
                      model2_rmse = map2_dbl(model2, test, rmse)
                    )
    
  cv_results %>% select(backward_rmse, model1_rmse, model2_rmse)
```

    ## # A tibble: 100 × 3
    ##    backward_rmse model1_rmse model2_rmse
    ##            <dbl>       <dbl>       <dbl>
    ##  1          283.        360.        302.
    ##  2          268.        322.        280.
    ##  3          266.        307.        279.
    ##  4          287.        337.        298.
    ##  5          290.        367.        303.
    ##  6          273.        314.        282.
    ##  7          277.        357.        290.
    ##  8          289.        346.        301.
    ##  9          273.        327.        287.
    ## 10          275.        338.        292.
    ## # ℹ 90 more rows
…
